%YAML 1.1
%TAG !u! tag:unity3d.com,2011:
--- !u!1045 &1
EditorBuildSettings:
  m_ObjectHideFlags: 0
  serializedVersion: 2
  m_Scenes:
  - enabled: 0
    path: 
    guid: 00000000000000000000000000000000
  - enabled: 1
    path: Assets/Scenes/Build-10.unity
    guid: 2c8e064c6508ef44dba1ecc02eeb1721
  - enabled: 1
    path: Assets/Scenes/Build-9.unity
    guid: 60d545d1ebd20134285642ba64fd7c91
  - enabled: 1
    path: Assets/Scenes/Build-1.unity
    guid: a25dd7e720ac27f4385761d1054011a4
  - enabled: 1
    path: Assets/Scenes/Build-3.unity
    guid: 6fbfc249ebd53444ba4e31639b312966
  - enabled: 1
    path: Assets/Scenes/Build-2.unity
    guid: c5f04a96b02ac5548994c148458255b5
  - enabled: 1
    path: Assets/Scenes/Build-4.unity
    guid: a147225279e8da049b4bcfbbe77c87c8
  - enabled: 1
    path: Assets/Scenes/Build-5.unity
    guid: 996ce17809720944d979d8b49493d306
  - enabled: 1
    path: Assets/Scenes/Build-6.unity
    guid: 0cf78c49df02c9e45a226966c912daf1
  - enabled: 1
    path: Assets/Scenes/Build-7.unity
    guid: 2d3541c1cd41c9a498af3a8b9659c4ee
  - enabled: 1
    path: Assets/Scenes/Build-8.unity
    guid: 8cd54a63b85ccd8429207bda59cedb78
  m_configObjects: {}
